[Line]

[Enemy]
type=202 x=262 y=321 flipX=1 flipY=0 scaleX=1.000000 scaleY=1.000000 ref=248
type=205 x=213 y=897 flipX=0 flipY=0 scaleX=1.000000 scaleY=1.000000 ref=249
type=203 x=274 y=126 flipX=0 flipY=0 scaleX=1.000000 scaleY=1.000000 ref=251
type=209 x=292 y=863 flipX=0 flipY=0 scaleX=1.000000 scaleY=1.000000 ref=253
type=200 x=195 y=215 flipX=1 flipY=0 scaleX=1.000000 scaleY=1.000000 ref=254
type=201 x=-52 y=577 flipX=1 flipY=0 scaleX=1.000000 scaleY=1.000000 ref=262
type=25 x=200 y=599 flipX=0 flipY=0 scaleX=1.000000 scaleY=1.000000 ref=264
type=25 x=40 y=786 flipX=1 flipY=0 scaleX=1.000000 scaleY=1.000000 ref=265
type=33 x=272 y=380 flipX=0 flipY=0 scaleX=1.000000 scaleY=1.000000 ref=266

[Item]
type=201 x=60 y=70 res=0
type=201 x=40 y=70 res=0
type=201 x=60 y=90 res=0
type=201 x=40 y=90 res=0
type=201 x=60 y=110 res=0
type=201 x=40 y=110 res=0
type=201 x=60 y=130 res=0
type=201 x=40 y=130 res=0
type=201 x=60 y=150 res=0
type=201 x=40 y=150 res=0
type=201 x=60 y=250 res=0
type=201 x=40 y=250 res=0
type=201 x=60 y=270 res=0
type=201 x=40 y=270 res=0
type=201 x=60 y=290 res=0
type=201 x=40 y=290 res=0
type=201 x=60 y=310 res=0
type=201 x=40 y=310 res=0
type=201 x=60 y=330 res=0
type=201 x=40 y=330 res=0
type=201 x=120 y=390 res=0
type=201 x=100 y=390 res=0
type=201 x=120 y=410 res=0
type=201 x=100 y=410 res=0
type=201 x=120 y=430 res=0
type=201 x=100 y=430 res=0
type=201 x=200 y=450 res=0
type=201 x=180 y=450 res=0
type=201 x=120 y=450 res=0
type=201 x=100 y=450 res=0
type=201 x=200 y=470 res=0
type=201 x=180 y=470 res=0
type=201 x=200 y=490 res=0
type=201 x=180 y=490 res=0
type=201 x=200 y=510 res=0
type=201 x=180 y=510 res=0
type=201 x=280 y=550 res=0
type=201 x=260 y=550 res=0
type=201 x=280 y=570 res=0
type=201 x=260 y=570 res=0
type=201 x=280 y=590 res=0
type=201 x=260 y=590 res=0
type=201 x=280 y=610 res=0
type=201 x=260 y=610 res=0
type=201 x=280 y=630 res=0
type=201 x=260 y=630 res=0
type=201 x=280 y=650 res=0
type=201 x=260 y=650 res=0
type=223 x=280 y=710 res=0
type=201 x=200 y=710 res=0
type=201 x=180 y=710 res=0
type=201 x=200 y=730 res=0
type=201 x=180 y=730 res=0
type=201 x=200 y=750 res=0
type=201 x=180 y=750 res=0
type=201 x=200 y=770 res=0
type=201 x=180 y=770 res=0
type=201 x=120 y=770 res=0
type=201 x=100 y=770 res=0
type=201 x=120 y=790 res=0
type=201 x=100 y=790 res=0
type=201 x=120 y=810 res=0
type=201 x=100 y=810 res=0
type=201 x=120 y=830 res=0
type=201 x=100 y=830 res=0
type=201 x=60 y=870 res=0
type=201 x=40 y=870 res=0
type=201 x=60 y=890 res=0
type=201 x=40 y=890 res=0
type=201 x=60 y=910 res=0
type=201 x=40 y=910 res=0
type=201 x=60 y=930 res=0
type=201 x=40 y=930 res=0
type=201 x=60 y=950 res=0
type=201 x=40 y=950 res=0

