[Line]

[Enemy]
type=21 x=35 y=150 flipX=0 flipY=0 scaleX=1.000000 scaleY=1.000000 ref=179
type=21 x=246 y=153 flipX=0 flipY=0 scaleX=1.000000 scaleY=1.000000 ref=180
type=110 x=236 y=696 flipX=0 flipY=0 scaleX=1.000000 scaleY=1.000000 ref=181

[Item]

