[Line]
id=1 type=1 xLine=2 y=720 prob=100
id=2 type=1 xLine=2 y=180 prob=100
id=3 type=1 xLine=0 y=144 prob=100
id=4 type=1 xLine=2 y=144 prob=100
id=5 type=1 xLine=2 y=108 prob=100

[Enemy]
type=6 x=25 y=720 speed=0 res=0
type=6 x=43 y=720 speed=0 res=0
type=6 x=61 y=720 speed=0 res=0
type=4 x=79 y=720 speed=0 res=0
type=4 x=97 y=720 speed=0 res=0
type=4 x=115 y=720 speed=0 res=0
type=6 x=25 y=702 speed=0 res=0
type=6 x=43 y=702 speed=0 res=0
type=6 x=61 y=702 speed=0 res=0
type=4 x=79 y=702 speed=0 res=0
type=4 x=97 y=702 speed=0 res=0
type=4 x=115 y=702 speed=0 res=0
type=6 x=25 y=684 speed=0 res=0
type=6 x=43 y=684 speed=0 res=0
type=6 x=61 y=684 speed=0 res=0
type=4 x=79 y=684 speed=0 res=0
type=4 x=97 y=684 speed=0 res=0
type=4 x=115 y=684 speed=0 res=0
type=6 x=25 y=666 speed=0 res=0
type=6 x=43 y=666 speed=0 res=0
type=6 x=61 y=666 speed=0 res=0
type=4 x=79 y=666 speed=0 res=0
type=4 x=97 y=666 speed=0 res=0
type=4 x=115 y=666 speed=0 res=0
type=6 x=25 y=648 speed=0 res=0
type=6 x=43 y=648 speed=0 res=0
type=6 x=61 y=648 speed=0 res=0
type=4 x=79 y=648 speed=0 res=0
type=4 x=97 y=648 speed=0 res=0
type=4 x=115 y=648 speed=0 res=0
type=6 x=25 y=504 speed=0 res=0
type=6 x=43 y=504 speed=0 res=0
type=6 x=61 y=504 speed=0 res=0
type=6 x=79 y=504 speed=0 res=0
type=6 x=97 y=504 speed=0 res=0
type=6 x=115 y=504 speed=0 res=0
type=6 x=133 y=504 speed=0 res=0
type=6 x=151 y=504 speed=0 res=0
type=6 x=169 y=504 speed=0 res=0
type=6 x=187 y=504 speed=0 res=0
type=6 x=205 y=504 speed=0 res=0
type=6 x=25 y=486 speed=0 res=0
type=6 x=43 y=486 speed=0 res=0
type=6 x=61 y=486 speed=0 res=0
type=6 x=79 y=486 speed=0 res=0
type=6 x=97 y=486 speed=0 res=0
type=6 x=115 y=486 speed=0 res=0
type=6 x=133 y=486 speed=0 res=0
type=6 x=151 y=486 speed=0 res=0
type=6 x=169 y=486 speed=0 res=0
type=6 x=187 y=486 speed=0 res=0
type=6 x=25 y=468 speed=0 res=0
type=6 x=43 y=468 speed=0 res=0
type=6 x=61 y=468 speed=0 res=0
type=6 x=79 y=468 speed=0 res=0
type=6 x=97 y=468 speed=0 res=0
type=6 x=115 y=468 speed=0 res=0
type=6 x=133 y=468 speed=0 res=0
type=6 x=151 y=468 speed=0 res=0
type=6 x=169 y=468 speed=0 res=0
type=6 x=187 y=468 speed=0 res=0
type=6 x=25 y=450 speed=0 res=0
type=6 x=43 y=450 speed=0 res=0
type=6 x=61 y=450 speed=0 res=0
type=6 x=79 y=450 speed=0 res=0
type=6 x=97 y=450 speed=0 res=0
type=6 x=115 y=450 speed=0 res=0
type=6 x=133 y=450 speed=0 res=0
type=6 x=151 y=450 speed=0 res=0
type=6 x=169 y=450 speed=0 res=0
type=6 x=25 y=432 speed=0 res=0
type=6 x=43 y=432 speed=0 res=0
type=6 x=61 y=432 speed=0 res=0
type=6 x=79 y=432 speed=0 res=0
type=6 x=97 y=432 speed=0 res=0
type=6 x=115 y=432 speed=0 res=0
type=6 x=133 y=432 speed=0 res=0
type=6 x=151 y=432 speed=0 res=0
type=6 x=169 y=432 speed=0 res=0
type=6 x=25 y=414 speed=0 res=0
type=6 x=43 y=414 speed=0 res=0
type=6 x=61 y=414 speed=0 res=0
type=6 x=79 y=414 speed=0 res=0
type=6 x=97 y=414 speed=0 res=0
type=6 x=115 y=414 speed=0 res=0
type=6 x=133 y=414 speed=0 res=0
type=6 x=151 y=414 speed=0 res=0
type=6 x=25 y=396 speed=0 res=0
type=6 x=43 y=396 speed=0 res=0
type=6 x=61 y=396 speed=0 res=0
type=6 x=79 y=396 speed=0 res=0
type=6 x=97 y=396 speed=0 res=0
type=6 x=115 y=396 speed=0 res=0
type=6 x=133 y=396 speed=0 res=0
type=6 x=151 y=396 speed=0 res=0
type=6 x=25 y=378 speed=0 res=0
type=6 x=43 y=378 speed=0 res=0
type=6 x=61 y=378 speed=0 res=0
type=6 x=79 y=378 speed=0 res=0
type=6 x=97 y=378 speed=0 res=0
type=6 x=115 y=378 speed=0 res=0
type=6 x=133 y=378 speed=0 res=0
type=6 x=25 y=360 speed=0 res=0
type=6 x=43 y=360 speed=0 res=0
type=6 x=61 y=360 speed=0 res=0
type=6 x=79 y=360 speed=0 res=0
type=6 x=97 y=360 speed=0 res=0
type=6 x=115 y=360 speed=0 res=0
type=6 x=295 y=342 speed=0 res=0
type=6 x=277 y=324 speed=0 res=0
type=6 x=295 y=324 speed=0 res=0
type=6 x=259 y=306 speed=0 res=0
type=6 x=277 y=306 speed=0 res=0
type=6 x=295 y=306 speed=0 res=0
type=6 x=241 y=288 speed=0 res=0
type=6 x=259 y=288 speed=0 res=0
type=6 x=277 y=288 speed=0 res=0
type=6 x=295 y=288 speed=0 res=0
type=6 x=241 y=270 speed=0 res=0
type=6 x=259 y=270 speed=0 res=0
type=6 x=277 y=270 speed=0 res=0
type=6 x=295 y=270 speed=0 res=0
type=6 x=259 y=252 speed=0 res=0
type=6 x=277 y=252 speed=0 res=0
type=6 x=295 y=252 speed=0 res=0
type=6 x=277 y=234 speed=0 res=0
type=6 x=295 y=234 speed=0 res=0
type=5 x=295 y=216 speed=0 res=0
type=6 x=205 y=72 speed=0 res=0
type=6 x=223 y=72 speed=0 res=0
type=6 x=241 y=72 speed=0 res=0
type=6 x=259 y=72 speed=0 res=0
type=6 x=277 y=72 speed=0 res=0
type=6 x=295 y=72 speed=0 res=0
type=6 x=205 y=54 speed=0 res=0
type=6 x=223 y=54 speed=0 res=0
type=6 x=241 y=54 speed=0 res=0
type=6 x=259 y=54 speed=0 res=0
type=6 x=277 y=54 speed=0 res=0
type=6 x=295 y=54 speed=0 res=0
type=6 x=205 y=36 speed=0 res=0
type=6 x=223 y=36 speed=0 res=0
type=6 x=241 y=36 speed=0 res=0
type=6 x=259 y=36 speed=0 res=0
type=6 x=277 y=36 speed=0 res=0
type=6 x=295 y=36 speed=0 res=0
type=6 x=205 y=18 speed=0 res=0
type=6 x=223 y=18 speed=0 res=0
type=6 x=241 y=18 speed=0 res=0
type=6 x=259 y=18 speed=0 res=0
type=6 x=277 y=18 speed=0 res=0
type=6 x=295 y=18 speed=0 res=0

[Item]
type=201 x=115 y=900 res=0
type=201 x=295 y=900 res=0
type=201 x=115 y=882 res=0
type=201 x=295 y=882 res=0
type=201 x=115 y=864 res=0
type=201 x=295 y=864 res=0
type=201 x=115 y=846 res=0
type=201 x=295 y=846 res=0
type=201 x=115 y=828 res=0
type=201 x=295 y=828 res=0
type=201 x=115 y=810 res=0
type=201 x=295 y=810 res=0
type=201 x=115 y=792 res=0
type=201 x=295 y=792 res=0
type=201 x=115 y=774 res=0
type=201 x=295 y=774 res=0
type=201 x=295 y=756 res=0
type=201 x=295 y=738 res=0
type=201 x=97 y=630 res=0
type=201 x=115 y=630 res=0
type=201 x=97 y=612 res=0
type=201 x=115 y=612 res=0
type=201 x=97 y=594 res=0
type=223 x=115 y=594 res=0
type=201 x=205 y=594 res=0
type=201 x=97 y=576 res=0
type=201 x=115 y=576 res=0
type=201 x=205 y=576 res=0
type=201 x=205 y=558 res=0
type=201 x=295 y=540 res=0
type=201 x=295 y=522 res=0
type=201 x=295 y=504 res=0
type=201 x=295 y=486 res=0
type=201 x=295 y=468 res=0
type=201 x=295 y=450 res=0
type=201 x=295 y=432 res=0
type=201 x=295 y=414 res=0
type=201 x=295 y=396 res=0
type=201 x=115 y=324 res=0
type=201 x=115 y=306 res=0
type=201 x=115 y=288 res=0
type=201 x=115 y=270 res=0
type=201 x=25 y=252 res=0
type=201 x=25 y=234 res=0
type=201 x=25 y=216 res=0
type=201 x=25 y=198 res=0
type=201 x=25 y=180 res=0
type=201 x=25 y=162 res=0
type=201 x=115 y=126 res=0
type=201 x=115 y=108 res=0
type=201 x=115 y=90 res=0
type=201 x=115 y=72 res=0
type=201 x=115 y=54 res=0
type=201 x=115 y=36 res=0
type=201 x=115 y=18 res=0

