[Line]
id=1 type=1 xLine=0 y=810 prob=100
id=2 type=1 xLine=2 y=810 prob=100
id=3 type=1 xLine=1 y=648 prob=100

[Enemy]
type=2 x=79 y=864 speed=0 res=0
type=2 x=241 y=864 speed=0 res=0
type=2 x=25 y=702 speed=0 res=0
type=2 x=295 y=702 speed=0 res=0
type=6 x=25 y=684 speed=0 res=0
type=6 x=295 y=684 speed=0 res=0
type=2 x=79 y=558 speed=0 res=0
type=2 x=241 y=558 speed=0 res=0

[Item]

