[Line]

[Enemy]
type=3 x=223 y=882 speed=0 res=0
type=3 x=277 y=882 speed=0 res=0
type=4 x=25 y=720 speed=0 res=0
type=4 x=295 y=720 speed=0 res=0
type=7 x=25 y=540 speed=0 res=0
type=7 x=115 y=540 speed=0 res=0

[Item]
type=201 x=241 y=846 res=0
type=201 x=259 y=846 res=0
type=201 x=241 y=828 res=0
type=201 x=259 y=828 res=0
type=201 x=241 y=792 res=0
type=201 x=259 y=792 res=0
type=201 x=241 y=774 res=0
type=201 x=259 y=774 res=0
type=201 x=151 y=756 res=0
type=201 x=169 y=756 res=0
type=201 x=151 y=738 res=0
type=201 x=169 y=738 res=0
type=201 x=241 y=738 res=0
type=201 x=259 y=738 res=0
type=201 x=241 y=720 res=0
type=201 x=259 y=720 res=0
type=201 x=151 y=702 res=0
type=201 x=169 y=702 res=0
type=201 x=241 y=702 res=0
type=201 x=259 y=702 res=0
type=201 x=151 y=684 res=0
type=201 x=169 y=684 res=0
type=201 x=151 y=666 res=0
type=201 x=169 y=666 res=0
type=201 x=241 y=666 res=0
type=201 x=259 y=666 res=0
type=201 x=241 y=648 res=0
type=201 x=259 y=648 res=0
type=201 x=151 y=630 res=0
type=201 x=169 y=630 res=0
type=201 x=241 y=630 res=0
type=201 x=259 y=630 res=0
type=201 x=151 y=612 res=0
type=201 x=169 y=612 res=0
type=201 x=241 y=594 res=0
type=201 x=259 y=594 res=0
type=201 x=151 y=576 res=0
type=201 x=169 y=576 res=0
type=201 x=241 y=576 res=0
type=201 x=259 y=576 res=0
type=201 x=151 y=558 res=0
type=201 x=169 y=558 res=0
type=201 x=241 y=558 res=0
type=201 x=259 y=558 res=0
type=201 x=151 y=540 res=0
type=201 x=169 y=540 res=0

