<svg width="640" height="480" xmlns="http://www.w3.org/2000/svg" xmlns:svg="http://www.w3.org/2000/svg" xmlns:xlink="http://www.w3.org/1999/xlink">
 <!-- Created with SVG-edit - http://svg-edit.googlecode.com/ -->
 <g>
    <title>Layer 1</title>
    <image  id="image"  height="128" width="133" xlink:href="../mapTmx/enemy/enemy_04.png" y="0" x="0"/>
    <circle id="anchor" r="3" cy="123" cx="92" stroke-width="2" stroke="#000000" fill="#FF0000"/>
 </g>
</svg>
