 [
  {
  "suitID"   : 1,
  "name"	 : "space dog",
  "info"     : "This is just a basic astrosuit.",
  "maxLevel" : 1,
  "icon"     : "suits_dog1.png",
  "passive"	 : "",
  "item"	 : "",
  "valueIcon": "",
  "displayFormat" : "",
  "price"    : [0, 100, 200, 300, 400, 500],
  "value"    : [100, 105, 110, 115, 120, 125]
  
  } ,
  {
  "suitID"    : 4,
  "name"	  : "unusable",
  "info"	  : "Let’s magnets all the stars around for every # second#s! Not the cats!",
  "passive"   : "grabStar",
  "item"      : "",
  "maxLevel"  : 5,
  "icon"      : "suits_dog4.png",
  "valueIcon" : "icon_suit_skill_04.png",
  "displayFormat" : "# sec",
  "price"     : [  0, 450, 490, 550, 590, 700],
  "value"     : [  0,  15,  12,   9,   7,   5]
  },
  
  {
  "suitID"    : 3,
  "name"	  : "Homing Missiles",
  "info"	  : "Launch <c1># missile#s</c1> to destroy wolves and meteors.",
  "passive"   : "",
  "item"      : "missile",
  "maxLevel"  : 5,
  "icon"      : "suits_dog3.png",
  "valueIcon" : "icon_suit_skill_03.png",
  "displayFormat" : "x #",
  "price"     : [  0, 950, 1000, 1150, 1250, 1500],
  "value"     : [  0,   1,    2,    3,    4,    5]
  },
  {
  "suitID"    : 6,
  "name"      : "Decelerator",
  "info"	  : "All wolves and meteors move slower by <c1>#%</c1>.",
  "passive"   : "",
  "item"      : "slow",
  "maxLevel"  : 5,
  "icon"      : "suits_dog6.png",
  "valueIcon" : "icon_suit_skill_06.png",
  "displayFormat" : "#%",
  "price"     : [  0, 270, 300, 320, 350, 410],
  "value"     : [  0,  40,  50,  60,  70,  80]
  },
  {
  "suitID"    : 7,
  "name"	    : "Time stop",
  "info"	    : "Stop wolves and meteors \nfor <c1># second#s</c1>.",
  "passive"   : "",
  "item"      : "timeStop",
  "maxLevel"  : 5,
  "icon"      : "suits_dog7.png",
  "valueIcon" : "icon_suit_skill_07.png",
  "displayFormat" : "## sec",
  "price"     : [  0, 750, 830, 900, 975, 1150],
  "value"     : [  0,   4,   5,   6,   7,    8]
  },
  {
  "suitID"   : 2,
  "name"	 : "Shield",
  "info"     : "My super shield protects\nme <c1># time#s</c1>!",
  "passive"	 : "shield",
  "item"	 : "",
  "maxLevel" : 3,
  "icon"     : "suits_dog2.png",
  "valueIcon": "icon_suit_skill_02.png",
  "displayFormat" : "x #",
  "price"    : [  0, 900, 950, 2500, 2500, 2500],
  "value"    : [  0,   1,   2,    3,    4,    5]
  },
  {
  "suitID"    : 5,
  "name"	  : "Unbreakable",
  "info"	  : "Any contact from your Astrodogs with wolves will destroy them for <c1># second#s</c1>!",
  "passive"   : "",
  "item"      : "invulnerable",
  "maxLevel"  : 5,
  "icon"      : "suits_dog5.png",
  "valueIcon" : "icon_suit_skill_05.png",
  "displayFormat" : "## sec",
  "price"     : [  0, 950, 1000, 1150, 1250, 1500],
  "value"     : [  0,   3,    4,    5,    6,    7]
  },
  {
  "suitID"    : 8,
  "name"	  : "Super Magnet",
  "info"	  : "Attract all the stars around\nfor <c1># second#s</c1>!",
  "passive"   : "",
  "item"      : "magnet",
  "maxLevel"  : 5,
  "icon"      : "suits_dog4.png",
  "valueIcon" : "icon_suit_skill_04.png",
  "displayFormat" : "# sec",
  "price"     : [  0, 450, 490, 550, 590, 700],
  "value"     : [  0,  1,  2,  3,  4,   5]
  }
  , {
	  "suitID"    : 9,
	  "name"	  : "Snow Ball",
	  "info"	  : "A <c1>#size</c1> snowball rolls over your enemies.",
	  "passive"   : "",
	  "item"      : "snowball",
	  "maxLevel"  : 3,
	  "icon"      : "suits_dog4.png",
	  "valueIcon" : "icon_suit_skill_09.png",
	  "displayFormat" : "# sec",
	  "price"     : [  0, 450, 490, 550, 590, 700],
	  "value"     : [  0,  100,  80,  60,  40,   20]
  }
  , {
  "suitID"    : 10,
  "name"	  : "Speed up ",
  "info"	  : "Your dog gets a <c1># seconds</c1> boost and goes through enemies.",
  "passive"   : "",
  "item"      : "speedup",
  "maxLevel"  : 5,
  "icon"      : "suits_dog4.png",
  "valueIcon" : "icon_suit_skill_10.png",
  "displayFormat" : "# sec",
  "price"     : [  0, 450, 490, 550, 590, 700],
  "value"     : [  0,  2,  4,  6,  8,   10]
  }

  
]
